<?xml version="1.0" encoding="UTF-8" standalone="no"?>
<svg
   xmlns:dc="http://purl.org/dc/elements/1.1/"
   xmlns:cc="http://creativecommons.org/ns#"
   xmlns:rdf="http://www.w3.org/1999/02/22-rdf-syntax-ns#"
   xmlns:svg="http://www.w3.org/2000/svg"
   xmlns="http://www.w3.org/2000/svg"
   xmlns:sodipodi="http://sodipodi.sourceforge.net/DTD/sodipodi-0.dtd"
   xmlns:inkscape="http://www.inkscape.org/namespaces/inkscape"
   version="1.1"
   inkscape:output_extension="org.inkscape.output.svg.inkscape"
   width="300"
   height="91"
   viewBox="0 0 300 91"
   id="svg5684"
   sodipodi:version="0.32"
   inkscape:version="1.0beta1 (c8cd966, 2019-11-15)"
   sodipodi:docname="shapes-f15.svg">
  <defs
     id="defs3" />
  <sodipodi:namedview
     inkscape:lockguides="true"
     id="base"
     pagecolor="#ffffff"
     bordercolor="#666666"
     borderopacity="1.0"
     inkscape:pageopacity="0.0"
     inkscape:pageshadow="2"
     inkscape:zoom="2.8"
     inkscape:cx="199.51786"
     inkscape:cy="23.897688"
     inkscape:document-units="px"
     inkscape:current-layer="g3367"
     inkscape:document-rotation="0"
     showgrid="false"
     units="px"
     showguides="true"
     inkscape:guide-bbox="true"
     inkscape:window-width="1866"
     inkscape:window-height="1016"
     inkscape:window-x="54"
     inkscape:window-y="27"
     inkscape:window-maximized="1" />
  <metadata
     id="metadata4">
    <rdf:RDF>
      <cc:Work
         rdf:about="">
        <dc:format>image/svg+xml</dc:format>
        <dc:type
           rdf:resource="http://purl.org/dc/dcmitype/StillImage" />
        <dc:title />
      </cc:Work>
    </rdf:RDF>
  </metadata>
  <g
     inkscape:label="Layer 1"
     inkscape:groupmode="layer"
     id="layer1">
    <g
       id="g3367"
       transform="translate(-1.2798239)">
      <path
         transform="matrix(1.174602,0,0,1.174602,-0.548917,-5471.588)"
         d="m 203.95671,4729.2151 c -8.42709,8.4271 -56.21891,8.4271 -64.646,0 -8.42709,-8.4271 -8.42709,-56.2189 0,-64.646 8.42709,-8.4271 56.21891,-8.4271 64.646,0 8.4271,8.4271 8.4271,56.2189 0,64.646 z"
         inkscape:randomized="0"
         inkscape:rounded="0.18435333"
         inkscape:flatsided="true"
         sodipodi:arg2="1.5707963"
         sodipodi:arg1="0.78539816"
         sodipodi:r2="32.323002"
         sodipodi:r1="45.711628"
         sodipodi:cy="4696.8921"
         sodipodi:cx="171.63371"
         sodipodi:sides="4"
         id="path4264"
         style="color:#000000;fill:#000000;fill-opacity:1;fill-rule:evenodd;stroke:none;stroke-width:0.75;stroke-linecap:butt;stroke-linejoin:miter;stroke-miterlimit:4;stroke-dashoffset:0;stroke-opacity:1;marker:none;marker-start:none;marker-mid:none;marker-end:none"
         sodipodi:type="star" />
      <text
  
         id="text903"
         y="41.899632"
         x="201.01576"
         style="font-style:normal;font-variant:normal;font-weight:normal;font-stretch:normal;font-size:10px;line-height:1.25;font-family:'Liberation Sans',Arial,sans-serif;-inkscape-font-specification:'sans-serif Normal';font-variant-ligatures:normal;font-variant-caps:normal;font-variant-numeric:normal;font-variant-east-asian:normal;text-align:center;writing-mode:lr-tb;text-anchor:middle;fill:#ffffff;fill-opacity:1;stroke:none;stroke-width:1px;stroke-linecap:butt;stroke-linejoin:miter;stroke-opacity:1"
         xml:space="preserve"><tspan
           y="41.899632"
           x="201.01576"
           id="tspan905"
           sodipodi:role="line">Rounded</tspan><tspan
           id="tspan907"
           y="54.399632"
           x="201.01576"
           sodipodi:role="line">polygon</tspan></text>
    </g>
    <g
       id="g3360"
       transform="translate(-1.2798239)">
      <rect
         rx="18.040419"
         ry="18.040419"
         y="1.8126992"
         x="56.116741"
         height="87.191818"
         width="87.191818"
         id="rect4263"
         style="color:#000000;fill:#000000;fill-opacity:1;fill-rule:evenodd;stroke:none;stroke-width:0.75;stroke-linecap:butt;stroke-linejoin:miter;stroke-miterlimit:4;stroke-dashoffset:0;stroke-opacity:1;marker:none;marker-start:none;marker-mid:none;marker-end:none" />
      <text
  
         id="text895"
         y="41.917397"
         x="99.512451"
         style="font-style:normal;font-variant:normal;font-weight:normal;font-stretch:normal;font-size:10px;line-height:1.25;font-family:'Liberation Sans',Arial,sans-serif;-inkscape-font-specification:'sans-serif Normal';font-variant-ligatures:normal;font-variant-caps:normal;font-variant-numeric:normal;font-variant-east-asian:normal;text-align:center;writing-mode:lr-tb;text-anchor:middle;fill:#ffffff;fill-opacity:1;stroke:none;stroke-width:1px;stroke-linecap:butt;stroke-linejoin:miter;stroke-opacity:1"
         xml:space="preserve"><tspan
           y="41.917397"
           x="99.512451"
           id="tspan897"
           sodipodi:role="line">Rounded</tspan><tspan
           id="tspan899"
           y="54.417397"
           x="99.512451"
           sodipodi:role="line">rectangle</tspan></text>
    </g>
  </g>
</svg>
