<?xml version="1.0" encoding="UTF-8" standalone="no"?>
<svg
   version="1.1"
   inkscape:output_extension="org.inkscape.output.svg.inkscape"
   sodipodi:docname="interpolate-f12.svg"
   inkscape:version="1.3-beta (aacce78c12, 2023-06-06)"
   sodipodi:version="0.32"
   viewBox="0 0 300 31"
   id="svg15699"
   height="31"
   width="300"
   xmlns:inkscape="http://www.inkscape.org/namespaces/inkscape"
   xmlns:sodipodi="http://sodipodi.sourceforge.net/DTD/sodipodi-0.dtd"
   xmlns="http://www.w3.org/2000/svg"
   xmlns:svg="http://www.w3.org/2000/svg"
   xmlns:rdf="http://www.w3.org/1999/02/22-rdf-syntax-ns#"
   xmlns:cc="http://creativecommons.org/ns#"
   xmlns:dc="http://purl.org/dc/elements/1.1/">
  <sodipodi:namedview
     inkscape:lockguides="true"
     id="base"
     pagecolor="#ffffff"
     bordercolor="#666666"
     borderopacity="1.0"
     inkscape:pageopacity="0.0"
     inkscape:pageshadow="2"
     inkscape:zoom="1.4"
     inkscape:cx="223.57143"
     inkscape:cy="21.071429"
     inkscape:document-units="px"
     inkscape:current-layer="layer1"
     inkscape:document-rotation="0"
     showgrid="false"
     units="px"
     showguides="true"
     inkscape:guide-bbox="true"
     inkscape:window-width="1015"
     inkscape:window-height="659"
     inkscape:window-x="936"
     inkscape:window-y="229"
     inkscape:window-maximized="0"
     inkscape:showpageshadow="2"
     inkscape:pagecheckerboard="0"
     inkscape:deskcolor="#d1d1d1" />
  <defs
     id="defs15701" />
  <metadata
     id="metadata15704">
    <rdf:RDF>
      <cc:Work
         rdf:about="">
        <dc:format>image/svg+xml</dc:format>
        <dc:type
           rdf:resource="http://purl.org/dc/dcmitype/StillImage" />
        <dc:title />
      </cc:Work>
    </rdf:RDF>
  </metadata>
  <g
     id="layer1"
     inkscape:groupmode="layer"
     inkscape:label="Layer 1">
    <g
       id="g23">
      <path
         inkscape:connector-curvature="0"
         style="fill:#00ff00;fill-opacity:1;stroke:#17a500;stroke-width:0.868842;stroke-linejoin:round;stroke-miterlimit:4;stroke-opacity:1"
         id="path6640"
         d="m 257.59795,27.441073 h -10.65338 l -5.3267,-9.226 5.3267,-9.2261 h 10.65338 l 5.32669,9.2261 z" />
      <path
         inkscape:connector-curvature="0"
         style="fill:#00ff00;fill-opacity:1;stroke:#17a500;stroke-width:0.796746;stroke-linejoin:round;stroke-miterlimit:4;stroke-opacity:1"
         d="m 32.997326,28.619173 c 0,0 -3.49016,-3.2745 -3.620999,-3.2745 -0.06542,0 -0.78972,4.8295 -0.871493,4.8295 -0.08178,0 -2.393507,-4.1658 -2.480734,-4.1658 -0.08723,0 -2.283111,4.3929 -2.364887,4.3929 -0.08178,0 -0.986426,-4.6493 -1.051846,-4.6493 -0.130839,0 -3.580998,3.5262 -3.580998,3.5262 0,0 0.605319,-4.7532 0.539898,-4.8665 -0.03271,-0.0567 -4.358885,2.1917 -4.399772,2.1209 -0.04089,-0.0708 1.978166,-4.3947 1.934554,-4.4702 -0.04361,-0.0755 -4.880586,0.7251 -4.921473,0.6542 -0.04089,-0.0708 3.195449,-3.5398 3.162738,-3.5965 -0.06542,-0.1133 -4.938528,-0.8368 -4.938528,-0.8368 0,0 4.20941,-2.3001 4.274831,-2.4133 0.03271,-0.0567 -4.322017,-2.2315 -4.28113,-2.3023 0.02044,-0.0354 4.690886,-0.9003 4.712352,-0.9375 0.02147,-0.0372 -3.483,-3.4379 -3.461193,-3.4756 0.02181,-0.0378 4.721344,0.5733 4.742809,0.5362 0.02147,-0.0372 -2.271889,-4.3618 -2.251445,-4.3972 0.04089,-0.0708 4.327303,1.9258 4.360015,1.8691 0.06542,-0.1133 -0.767102,-4.9822 -0.767102,-4.9822 0,0 3.490159,3.2745 3.620998,3.2745 0.06542,0 0.78972,-4.8295 0.871494,-4.8295 0.08177,0 2.393507,4.1657 2.480734,4.1657 0.08723,0 2.283111,-4.3928 2.364885,-4.3928 0.08178,0 0.986427,4.6493 1.051848,4.6493 0.130839,0 3.580995,-3.5263 3.580995,-3.5263 0,0 -0.605316,4.7533 -0.539898,4.8666 0.03271,0.0567 4.358887,-2.1917 4.399774,-2.1209 0.04089,0.0708 -1.978168,4.3946 -1.934553,4.4702 0.02181,0.0377 4.836971,-0.8006 4.858436,-0.7635 0.02147,0.0372 -3.231905,3.4767 -3.211462,3.5122 0.04089,0.0708 4.908544,0.7849 4.941254,0.8415 0.06542,0.1133 -4.056764,2.4134 -4.056764,2.4134 0,0 4.349275,2.1842 4.283855,2.2975 -0.03271,0.0566 -4.72019,0.951 -4.761077,1.0218 -0.02044,0.0355 3.484705,3.435 3.463238,3.4722 -0.02147,0.0372 -4.721003,-0.574 -4.742809,-0.5363 -0.04361,0.0756 2.227255,4.4392 2.186368,4.51 -0.04089,0.0708 -4.327303,-1.9258 -4.360015,-1.8691 -0.06542,0.1133 0.767102,4.9822 0.767102,4.9822 0,0 0,0 0,0"
         id="path6642" />
      <g
         id="g22">
        <path
           d="M 117.888 28.1739 C 117.888 28.1739 115.477 26.137 115.033 26.137 C 114.814 26.137 114.157 29.1412 113.884 29.1412 C 113.642 29.1412 112.001 26.5499 111.741 26.5499 C 111.482 26.5499 109.907 29.2824 109.654 29.2824 C 109.398 29.2824 108.635 26.3904 108.41 26.3904 C 108.09 26.3904 105.73 28.5838 105.562 28.5838 C 105.321 28.5838 105.309 27.5008 105.409 26.6301 C 105.474 26.0621 105.484 25.5163 105.4 25.371 C 105.307 25.21 102.511 26.4265 102.361 26.1675 C 102.244 25.9645 103.398 23.098 103.264 22.8657 C 103.137 22.6464 100.025 22.9647 99.8957 22.7412 C 99.7701 22.5238 101.683 20.1929 101.567 19.9916 C 101.416 19.7294 98.2792 19.097 98.1855 18.9347 C 98.0579 18.7137 100.57 17.0991 100.541 16.9085 C 100.493 16.7991 100.119 16.5628 99.6789 16.3335 C 98.8869 15.9212 97.8561 15.2107 98.0032 14.956 C 98.0982 14.7914 101.105 14.0773 101.231 13.8587 C 101.339 13.6714 99.2621 11.3782 99.3813 11.1719 C 99.4919 10.9803 102.515 11.1881 102.626 10.9948 C 102.744 10.7904 101.421 7.92151 101.531 7.73119 C 101.664 7.50139 104.43 8.57037 104.536 8.38559 C 104.759 7.99961 104.432 5.1375 104.373 4.79106 C 104.369 4.76681 104.369 4.75384 104.374 4.75384 C 104.418 4.75384 106.819 6.7907 107.23 6.7907 C 107.449 6.7907 108.106 3.78658 108.379 3.78658 C 108.621 3.78658 110.262 6.37779 110.521 6.37779 C 110.781 6.37779 112.356 3.64531 112.609 3.64531 C 112.865 3.64531 113.628 6.53734 113.852 6.53734 C 114.173 6.53734 116.533 4.34386 116.701 4.34386 C 116.938 4.34386 116.95 5.39567 116.85 6.25957 C 116.783 6.84411 116.772 7.41326 116.859 7.56289 C 116.952 7.72491 119.748 6.50836 119.898 6.76672 C 120.015 6.96993 118.861 9.83647 118.995 10.0689 C 119.107 10.2629 122.205 9.91923 122.321 10.1198 C 122.434 10.3151 120.509 12.6266 120.617 12.8137 C 120.753 13.0494 123.887 13.6759 124.001 13.8735 C 124.162 14.153 121.7 15.7598 121.769 15.8803 C 121.833 15.9904 122.275 16.2577 122.77 16.5114 C 123.553 16.913 124.482 17.573 124.334 17.8302 C 124.231 18.0082 121.212 18.7434 121.071 18.9869 C 120.964 19.1728 123.042 21.4653 122.922 21.6716 C 122.812 21.8627 119.789 21.6549 119.677 21.8487 C 119.544 22.0796 120.852 24.9755 120.728 25.1903 C 120.595 25.4196 117.829 24.3504 117.723 24.5353 C 117.495 24.9297 117.888 28.1739 117.888 28.1739"
           style="fill:#00ff00;fill-opacity:1;stroke:#17a500;stroke-width:0.796746;stroke-linejoin:round;stroke-miterlimit:4;stroke-opacity:1"
           id="path17" />
        <path
           d="M 153.051 27.9895 C 153.051 27.9895 151.087 26.4652 150.513 26.4652 C 150.231 26.4652 149.602 28.7133 149.249 28.7133 C 148.941 28.7133 147.578 26.7742 147.247 26.7742 C 146.915 26.7742 145.599 28.819 145.274 28.819 C 144.945 28.819 144.242 26.6548 143.951 26.6548 C 143.552 26.6548 141.644 28.2962 141.406 28.2962 C 141.065 28.2962 140.957 27.4858 141.032 26.8342 C 141.08 26.4092 141.061 25.9553 140.954 25.7684 C 140.836 25.5642 138.673 26.3533 138.479 26.0162 C 138.33 25.7586 139.125 23.4957 138.954 23.1984 C 138.793 22.9196 136.394 23.0382 136.229 22.7514 C 136.068 22.4733 137.433 20.6138 137.283 20.3526 C 137.096 20.0287 134.678 19.4341 134.546 19.2046 C 134.365 18.892 136.175 17.5613 136.107 17.3387 C 136.033 17.1924 135.733 16.9787 135.403 16.8071 C 134.81 16.4986 134.094 15.8724 134.291 15.531 C 134.417 15.3129 136.734 14.6613 136.904 14.3676 C 137.048 14.1181 135.562 12.2837 135.721 12.0074 C 135.869 11.7522 138.197 11.7929 138.346 11.535 C 138.504 11.2612 137.582 8.99538 137.729 8.74088 C 137.9 8.44522 140.037 9.12996 140.174 8.89213 C 140.464 8.39014 140.301 6.10687 140.256 5.84762 C 140.253 5.82947 140.255 5.81977 140.263 5.81977 C 140.325 5.81977 142.274 7.34398 142.801 7.34398 C 143.083 7.34398 143.713 5.09595 144.065 5.09595 C 144.373 5.09595 145.736 7.03499 146.067 7.03499 C 146.399 7.03499 147.716 4.99024 148.04 4.99024 C 148.369 4.99024 149.072 7.15439 149.363 7.15439 C 149.762 7.15439 151.67 5.51297 151.908 5.51297 C 152.242 5.51297 152.349 6.30006 152.275 6.94652 C 152.224 7.38394 152.243 7.85689 152.355 8.04955 C 152.473 8.2552 154.636 7.46606 154.83 7.8021 C 154.979 8.06017 154.183 10.3231 154.355 10.6204 C 154.505 10.8793 156.891 10.7404 157.046 11.0087 C 157.197 11.2696 155.823 13.1138 155.967 13.3636 C 156.142 13.6677 158.557 14.2579 158.705 14.5138 C 158.906 14.8623 157.131 16.1819 157.229 16.3522 C 157.319 16.5079 157.675 16.7503 158.045 16.9402 C 158.631 17.2407 159.275 17.8231 159.082 18.1582 C 158.95 18.3865 156.622 19.0557 156.44 19.3707 C 156.297 19.619 157.783 21.4529 157.624 21.7293 C 157.476 21.9841 155.148 21.9434 154.999 22.2019 C 154.828 22.4972 155.737 24.785 155.579 25.0596 C 155.408 25.3545 153.272 24.6694 153.135 24.9074 C 152.84 25.4182 153.051 27.9895 153.051 27.9895"
           style="fill:#00ff00;fill-opacity:1;stroke:#17a500;stroke-width:0.796746;stroke-linejoin:round;stroke-miterlimit:4;stroke-opacity:1"
           id="path18" />
        <path
           d="M 180.033 27.8479 C 180.033 27.8479 178.412 26.7171 177.737 26.7171 C 177.407 26.7171 176.799 28.3849 176.386 28.3849 C 176.026 28.3849 174.877 26.9463 174.491 26.9463 C 174.105 26.9463 172.985 28.4634 172.606 28.4634 C 172.222 28.4634 171.564 26.8577 171.222 26.8577 C 170.763 26.8577 169.202 28.0755 168.91 28.0755 C 168.492 28.0755 168.31 27.4742 168.366 26.9908 C 168.402 26.6755 168.361 26.2921 168.235 26.0734 C 168.098 25.836 166.422 26.2971 166.192 25.9002 C 166.019 25.6005 166.54 23.8009 166.339 23.4537 C 166.152 23.1292 164.302 23.0945 164.108 22.7593 C 163.921 22.4346 164.865 20.9367 164.688 20.6296 C 164.474 20.2583 162.608 19.6927 162.446 19.4116 C 162.225 19.0288 163.495 17.916 163.397 17.6688 C 163.305 17.4941 163.06 17.2978 162.815 17.1704 C 162.375 16.9416 161.899 16.3802 162.135 15.9723 C 162.285 15.7131 164.074 15.1094 164.276 14.7581 C 164.448 14.4609 163.416 12.9785 163.606 12.6486 C 163.782 12.3445 165.577 12.257 165.755 11.9495 C 165.943 11.6226 165.33 9.81939 165.505 9.51564 C 165.705 9.16945 167.359 9.55936 167.519 9.28082 C 167.861 8.6898 167.823 6.85069 167.791 6.65835 C 167.788 6.64488 167.792 6.63768 167.8 6.63768 C 167.877 6.63768 169.48 7.76852 170.096 7.76852 C 170.426 7.76852 171.035 6.10067 171.448 6.10067 C 171.807 6.10067 172.957 7.53928 173.343 7.53928 C 173.729 7.53928 174.848 6.02224 175.227 6.02224 C 175.611 6.02224 176.269 7.62786 176.611 7.62786 C 177.07 7.62786 178.632 6.41006 178.923 6.41006 C 179.333 6.41006 179.512 6.99402 179.457 7.47364 C 179.419 7.79817 179.461 8.1973 179.592 8.42298 C 179.73 8.6621 181.406 8.20093 181.634 8.59658 C 181.807 8.89674 181.287 10.6965 181.488 11.0436 C 181.666 11.3522 183.506 11.3706 183.691 11.6908 C 183.871 12.0019 182.919 13.4876 183.091 13.7856 C 183.297 14.1421 185.161 14.7044 185.334 15.0052 C 185.566 15.4065 184.318 16.5058 184.439 16.7144 C 184.549 16.905 184.838 17.1284 185.112 17.2692 C 185.547 17.4922 185.973 18.0151 185.745 18.4099 C 185.591 18.6767 183.793 19.2953 183.58 19.6653 C 183.409 19.9614 184.441 21.4434 184.251 21.7736 C 184.075 22.0772 182.28 22.1648 182.102 22.4729 C 181.903 22.8175 182.506 24.6389 182.321 24.9592 C 182.121 25.3046 180.468 24.9142 180.308 25.1929 C 179.961 25.7931 180.033 27.8479 180.033 27.8479"
           style="fill:#00ff00;fill-opacity:1;stroke:#17a500;stroke-width:0.796746;stroke-linejoin:round;stroke-miterlimit:4;stroke-opacity:1"
           id="path19" />
        <path
           d="M 202.779 27.7286 C 202.779 27.7286 201.447 26.9294 200.689 26.9294 C 200.318 26.9294 199.728 28.1081 199.263 28.1081 C 198.861 28.1081 197.891 27.0914 197.459 27.0914 C 197.026 27.0914 196.074 28.1636 195.648 28.1636 C 195.218 28.1636 194.598 27.0288 194.213 27.0288 C 193.703 27.0288 192.434 27.8895 192.097 27.8895 C 191.615 27.8895 191.37 27.4645 191.41 27.1229 C 191.435 26.9 191.376 26.5761 191.234 26.3304 C 191.081 26.0651 189.814 26.2497 189.556 25.8024 C 189.363 25.4673 189.651 24.0582 189.427 23.669 C 189.217 23.3059 187.829 23.142 187.612 22.7659 C 187.402 22.4019 187.992 21.209 187.792 20.8631 C 187.554 20.4519 186.155 19.9108 185.967 19.5862 C 185.712 19.1442 186.527 18.215 186.404 17.9471 C 186.295 17.7485 186.097 17.5668 185.925 17.4768 C 185.614 17.315 185.341 16.8083 185.609 16.3443 C 185.778 16.0505 187.122 15.4872 187.353 15.0873 C 187.547 14.7498 186.897 13.5642 187.114 13.1891 C 187.313 12.8438 188.659 12.6483 188.861 12.2989 C 189.076 11.9272 188.722 10.5141 188.922 10.1688 C 189.146 9.78 190.392 9.92136 190.573 9.6085 C 190.957 8.94243 191.026 7.47775 191.003 7.34182 C 191.002 7.3323 191.006 7.32722 191.016 7.32722 C 191.104 7.32722 192.416 8.12643 193.106 8.12643 C 193.478 8.12643 194.068 6.94768 194.532 6.94768 C 194.935 6.94768 195.904 7.96441 196.337 7.96441 C 196.769 7.96441 197.722 6.89226 198.147 6.89226 C 198.578 6.89226 199.198 8.02702 199.582 8.02702 C 200.092 8.02702 201.362 7.16635 201.698 7.16635 C 202.171 7.16635 202.411 7.57905 202.372 7.91802 C 202.346 8.14738 202.407 8.48428 202.553 8.7378 C 202.708 9.00514 203.974 8.82045 204.231 9.26636 C 204.425 9.602 204.137 11.0113 204.361 11.4004 C 204.564 11.7509 205.944 11.9018 206.154 12.2658 C 206.358 12.6193 205.763 13.8027 205.959 14.1414 C 206.19 14.5421 207.588 15.0809 207.784 15.4194 C 208.041 15.8653 207.238 16.7788 207.378 17.0197 C 207.505 17.2398 207.737 17.447 207.931 17.5466 C 208.239 17.7042 208.48 18.177 208.223 18.6221 C 208.05 18.9214 206.699 19.4974 206.459 19.9136 C 206.265 20.25 206.915 21.4354 206.698 21.8109 C 206.499 22.1558 205.153 22.3514 204.951 22.7014 C 204.728 23.0876 205.073 24.5157 204.865 24.8746 C 204.642 25.2624 203.396 25.1205 203.215 25.4336 C 202.825 26.1091 202.779 27.7286 202.779 27.7286"
           style="fill:#00ff00;fill-opacity:1;stroke:#17a500;stroke-width:0.796746;stroke-linejoin:round;stroke-miterlimit:4;stroke-opacity:1"
           id="path20" />
        <path
           d="M 222.819 27.6235 C 222.819 27.6235 221.742 27.1165 220.91 27.1165 C 220.503 27.1165 219.928 27.8643 219.418 27.8643 C 218.978 27.8643 218.167 27.2192 217.694 27.2192 C 217.221 27.2192 216.415 27.8994 215.949 27.8994 C 215.477 27.8994 214.891 27.1795 214.468 27.1795 C 213.914 27.1795 212.902 27.7255 212.525 27.7255 C 211.986 27.7255 211.687 27.4559 211.712 27.2392 C 211.728 27.0978 211.652 26.8263 211.496 26.5569 C 211.329 26.267 210.424 26.2079 210.14 25.7162 C 209.929 25.3499 210.013 24.2848 209.767 23.8586 C 209.538 23.4616 208.557 23.1839 208.319 22.7717 C 208.089 22.3731 208.366 21.4489 208.147 21.0688 C 207.889 20.6225 206.899 20.1029 206.69 19.74 C 206.404 19.2458 206.819 18.4784 206.674 18.1923 C 206.551 17.9727 206.394 17.8038 206.284 17.7467 C 206.087 17.6441 205.993 17.1854 206.29 16.672 C 206.477 16.3477 207.428 15.82 207.683 15.3773 C 207.898 15.0044 207.585 14.0802 207.825 13.6654 C 208.045 13.2838 208.995 12.993 209.218 12.6068 C 209.456 12.1955 209.332 11.1261 209.552 10.7442 C 209.798 10.3179 210.685 10.2403 210.883 9.89719 C 211.306 9.165 211.468 8.03021 211.454 7.94397 C 211.453 7.93793 211.458 7.93471 211.469 7.93471 C 211.568 7.93471 212.622 8.44175 213.379 8.44175 C 213.787 8.44175 214.361 7.69392 214.87 7.69392 C 215.311 7.69392 216.122 8.33896 216.595 8.33896 C 217.068 8.33896 217.874 7.65876 218.34 7.65876 C 218.812 7.65876 219.398 8.37868 219.82 8.37868 C 220.375 8.37868 221.387 7.83265 221.763 7.83265 C 222.292 7.83265 222.586 8.09448 222.561 8.30953 C 222.544 8.45504 222.623 8.73711 222.783 9.01516 C 222.952 9.30736 223.857 9.36626 224.14 9.85645 C 224.352 10.2233 224.268 11.2886 224.514 11.7148 C 224.737 12.1022 225.712 12.3698 225.945 12.7724 C 226.17 13.1632 225.889 14.0804 226.105 14.4548 C 226.359 14.8944 227.348 15.4126 227.562 15.7844 C 227.842 16.2695 227.431 17.0193 227.587 17.2886 C 227.729 17.5348 227.912 17.7278 228.035 17.791 C 228.23 17.8909 228.309 18.3196 228.026 18.809 C 227.837 19.137 226.88 19.6754 226.617 20.1323 C 226.402 20.5043 226.715 21.4283 226.475 21.8438 C 226.255 22.225 225.305 22.5159 225.081 22.9026 C 224.837 23.3256 224.955 24.4071 224.728 24.8001 C 224.482 25.2253 223.595 25.3023 223.397 25.6456 C 222.969 26.3875 222.819 27.6235 222.819 27.6235"
           style="fill:#00ff00;fill-opacity:1;stroke:#17a500;stroke-width:0.796746;stroke-linejoin:round;stroke-miterlimit:4;stroke-opacity:1"
           id="path21" />
        <path
           d="M 240.937 27.5285 C 240.937 27.5285 240.09 27.2856 239.191 27.2856 C 238.751 27.2856 238.191 27.6438 237.64 27.6438 C 237.166 27.6438 236.498 27.3348 235.988 27.3348 C 235.478 27.3348 234.805 27.6607 234.302 27.6607 C 233.793 27.6607 233.237 27.3158 232.78 27.3158 C 232.186 27.3158 231.407 27.5773 230.994 27.5773 C 230.403 27.5773 230.054 27.4482 230.066 27.3444 C 230.074 27.2766 229.983 27.0525 229.815 26.7616 C 229.635 26.4495 229.056 26.1702 228.749 25.6382 C 228.522 25.2438 228.421 24.4897 228.156 24.03 C 227.909 23.6024 227.296 23.2217 227.039 22.777 C 226.791 22.3471 226.786 21.6657 226.549 21.2548 C 226.273 20.7767 225.654 20.2765 225.424 19.879 C 225.112 19.3377 225.164 18.7166 224.999 18.414 C 224.863 18.1753 224.744 18.018 224.691 17.9907 C 224.597 17.9415 224.665 17.5263 224.987 16.9683 C 225.19 16.6165 225.785 16.1209 226.063 15.6395 C 226.297 15.2346 226.289 14.5468 226.549 14.0959 C 226.788 13.6815 227.381 13.3046 227.623 12.8851 C 227.881 12.4381 227.964 11.6794 228.203 11.2645 C 228.469 10.8042 229.031 10.5286 229.245 10.1582 C 229.703 9.36622 229.949 8.52967 229.942 8.48836 C 229.942 8.48547 229.948 8.48392 229.96 8.48392 C 230.068 8.48392 230.89 8.72682 231.707 8.72682 C 232.147 8.72682 232.707 8.36857 233.257 8.36857 C 233.732 8.36857 234.4 8.67758 234.91 8.67758 C 235.42 8.67758 236.093 8.35172 236.595 8.35172 C 237.105 8.35172 237.66 8.69661 238.117 8.69661 C 238.712 8.69661 239.491 8.43503 239.903 8.43503 C 240.483 8.43503 240.825 8.56046 240.813 8.66348 C 240.805 8.73319 240.899 8.96569 241.072 9.26591 C 241.254 9.58059 241.832 9.85971 242.139 10.3899 C 242.367 10.7851 242.467 11.5393 242.733 11.999 C 242.976 12.4197 243.584 12.7929 243.837 13.2304 C 244.082 13.655 244.084 14.3314 244.319 14.7382 C 244.593 15.213 245.212 15.7125 245.444 16.1143 C 245.744 16.635 245.687 17.2368 245.858 17.5318 C 246.013 17.8015 246.152 17.9816 246.211 18.0119 C 246.304 18.0598 246.236 18.4485 245.93 18.978 C 245.726 19.3319 245.125 19.8363 244.84 20.3301 C 244.607 20.7342 244.615 21.422 244.355 21.8735 C 244.116 22.2875 243.523 22.6645 243.281 23.0846 C 243.017 23.5407 242.929 24.309 242.684 24.7327 C 242.419 25.1918 241.857 25.4667 241.643 25.8374 C 241.18 26.6393 240.937 27.5285 240.937 27.5285"
           style="fill:#00ff00;fill-opacity:1;stroke:#17a500;stroke-width:0.796746;stroke-linejoin:round;stroke-miterlimit:4;stroke-opacity:1"
           id="path22" />
      </g>
    </g>
  </g>
</svg>
