<?xml version="1.0" encoding="UTF-8" standalone="no"?>
<svg
   version="1.1"
   inkscape:output_extension="org.inkscape.output.svg.inkscape"
   sodipodi:docname="interpolate-f15.svg"
   inkscape:version="1.3-beta (aacce78c12, 2023-06-06)"
   sodipodi:version="0.32"
   viewBox="0 0 300 31"
   id="svg15699"
   height="31"
   width="300"
   xmlns:inkscape="http://www.inkscape.org/namespaces/inkscape"
   xmlns:sodipodi="http://sodipodi.sourceforge.net/DTD/sodipodi-0.dtd"
   xmlns="http://www.w3.org/2000/svg"
   xmlns:svg="http://www.w3.org/2000/svg"
   xmlns:rdf="http://www.w3.org/1999/02/22-rdf-syntax-ns#"
   xmlns:cc="http://creativecommons.org/ns#"
   xmlns:dc="http://purl.org/dc/elements/1.1/">
  <sodipodi:namedview
     inkscape:lockguides="true"
     id="base"
     pagecolor="#ffffff"
     bordercolor="#666666"
     borderopacity="1.0"
     inkscape:pageopacity="0.0"
     inkscape:pageshadow="2"
     inkscape:zoom="1.4"
     inkscape:cx="324.64286"
     inkscape:cy="-3.2142857"
     inkscape:document-units="px"
     inkscape:current-layer="layer1"
     inkscape:document-rotation="0"
     showgrid="false"
     units="px"
     showguides="true"
     inkscape:guide-bbox="true"
     inkscape:window-width="1920"
     inkscape:window-height="1137"
     inkscape:window-x="0"
     inkscape:window-y="0"
     inkscape:window-maximized="1"
     inkscape:showpageshadow="2"
     inkscape:pagecheckerboard="0"
     inkscape:deskcolor="#d1d1d1" />
  <defs
     id="defs15701" />
  <metadata
     id="metadata15704">
    <rdf:RDF>
      <cc:Work
         rdf:about="">
        <dc:format>image/svg+xml</dc:format>
        <dc:type
           rdf:resource="http://purl.org/dc/dcmitype/StillImage" />
        <dc:title />
      </cc:Work>
    </rdf:RDF>
  </metadata>
  <g
     id="layer1"
     inkscape:groupmode="layer"
     inkscape:label="Layer 1">
    <g
       id="g21">
      <path
         inkscape:connector-curvature="0"
         style="fill:#00ff00;fill-opacity:1;stroke:#17a500;stroke-width:0.868842;stroke-linejoin:round;stroke-miterlimit:4;stroke-opacity:1"
         id="path6652"
         d="m 257.59794,27.441173 h -10.65339 l -5.32669,-9.2261 5.3267,-9.2261 h 10.65338 l 5.32669,9.2261 z" />
      <path
         inkscape:connector-curvature="0"
         style="fill:#00ff00;fill-opacity:1;stroke:#17a500;stroke-width:0.796746;stroke-linejoin:round;stroke-miterlimit:4;stroke-opacity:1"
         d="m 32.997326,28.619173 c 0,0 -3.490159,-3.2745 -3.620998,-3.2745 -0.06542,0 -0.78972,4.8295 -0.871494,4.8295 -0.08178,0 -2.393507,-4.1658 -2.480734,-4.1658 -0.08723,0 -2.283111,4.3929 -2.364887,4.3929 -0.08177,0 -0.986426,-4.6493 -1.051846,-4.6493 -0.130839,0 -3.580998,3.5263 -3.580998,3.5263 0,0 0.605319,-4.7533 0.539899,-4.8666 -0.03271,-0.0567 -4.358886,2.1917 -4.399773,2.1209 -0.04089,-0.0708 1.978166,-4.3946 1.934555,-4.4702 -0.04361,-0.0755 -4.880586,0.7251 -4.921474,0.6543 -0.04089,-0.0709 3.195449,-3.5399 3.162738,-3.5966 -0.06542,-0.1133 -4.938528,-0.8367 -4.938528,-0.8367 0,0 4.209411,-2.3001 4.274831,-2.4134 0.03271,-0.0567 -4.322017,-2.2315 -4.28113,-2.3023 0.02044,-0.0354 4.690886,-0.9003 4.712352,-0.9375 0.02147,-0.0372 -3.483,-3.4378 -3.461193,-3.4756 0.02181,-0.0378 4.721344,0.5734 4.74281,0.5362 0.02147,-0.0372 -2.27189,-4.3618 -2.251446,-4.3972 0.04089,-0.0708 4.327304,1.9258 4.360015,1.8691 0.06542,-0.1133 -0.767102,-4.9822 -0.767102,-4.9822 0,0 3.490159,3.2745 3.620998,3.2745 0.06542,0 0.78972,-4.8295 0.871495,-4.8295 0.08177,0 2.393507,4.1658 2.480733,4.1658 0.08723,0 2.283112,-4.3929 2.364885,-4.3929 0.08178,0 0.986428,4.6493 1.051848,4.6493 0.130839,0 3.580995,-3.5263 3.580995,-3.5263 0,0 -0.605316,4.7533 -0.539898,4.8666 0.03271,0.0567 4.358887,-2.1917 4.399774,-2.1209 0.04089,0.0709 -1.978168,4.3946 -1.934553,4.4702 0.02181,0.0377 4.836971,-0.8006 4.858437,-0.7635 0.02147,0.0372 -3.231906,3.4767 -3.211463,3.5122 0.04089,0.0708 4.908545,0.7849 4.941254,0.8415 0.06542,0.1133 -4.056764,2.4134 -4.056764,2.4134 0,0 4.349276,2.1842 4.283855,2.2975 -0.03271,0.0567 -4.72019,0.951 -4.761077,1.0219 -0.02044,0.0354 3.484705,3.4349 3.463239,3.4721 -0.02147,0.0372 -4.721004,-0.574 -4.74281,-0.5362 -0.04361,0.0755 2.227255,4.4391 2.186368,4.5099 -0.04089,0.0708 -4.327303,-1.9257 -4.360015,-1.8691 -0.06542,0.1133 0.767102,4.9822 0.767102,4.9822 0,0 0,0 0,0"
         id="path6654" />
      <g
         id="g20">
        <path
           d="M 172.707 27.8864 C 172.707 27.8864 170.992 26.6488 170.345 26.6488 C 170.028 26.6488 169.414 28.4741 169.017 28.4741 C 168.672 28.4741 167.465 26.8996 167.094 26.8996 C 166.722 26.8996 165.549 28.56 165.185 28.56 C 164.816 28.56 164.146 26.8027 163.817 26.8027 C 163.375 26.8027 161.719 28.1355 161.442 28.1355 C 161.045 28.1355 160.883 27.478 160.944 26.949 C 160.984 26.6036 160.949 26.2007 160.827 25.9906 C 160.695 25.7623 158.887 26.3124 158.667 25.9317 C 158.501 25.6435 159.096 23.7181 158.903 23.3844 C 158.723 23.0723 156.724 23.0792 156.538 22.7572 C 156.358 22.4451 157.417 20.8491 157.247 20.5544 C 157.04 20.196 155.025 19.6225 154.871 19.3555 C 154.661 18.9917 156.077 17.8197 155.988 17.5792 C 155.9 17.4122 155.64 17.2111 155.372 17.0718 C 154.891 16.8213 154.35 16.2423 154.575 15.8525 C 154.718 15.6045 156.65 14.9877 156.844 14.6521 C 157.008 14.3678 155.853 12.7899 156.035 12.4745 C 156.203 12.1837 158.143 12.131 158.313 11.837 C 158.493 11.5245 157.796 9.59565 157.964 9.30528 C 158.156 8.97281 159.94 9.44277 160.095 9.17528 C 160.422 8.60843 160.35 6.64872 160.315 6.43822 C 160.312 6.42348 160.315 6.4156 160.323 6.4156 C 160.396 6.4156 162.093 7.65325 162.685 7.65325 C 163.002 7.65325 163.616 5.82787 164.013 5.82787 C 164.358 5.82787 165.566 7.40239 165.937 7.40239 C 166.308 7.40239 167.481 5.74203 167.845 5.74203 C 168.214 5.74203 168.884 7.4993 169.212 7.4993 C 169.656 7.4993 171.311 6.16649 171.588 6.16649 C 171.977 6.16649 172.137 6.80559 172.076 7.33052 C 172.035 7.6857 172.071 8.10487 172.196 8.32159 C 172.329 8.55162 174.137 8.0014 174.356 8.38086 C 174.523 8.66963 173.928 10.5951 174.121 10.9287 C 174.291 11.2238 176.28 11.1995 176.457 11.5056 C 176.628 11.8031 175.562 13.3861 175.727 13.6711 C 175.924 14.0133 177.937 14.5832 178.104 14.8718 C 178.327 15.2588 176.936 16.4178 177.051 16.616 C 177.155 16.7972 177.462 17.0257 177.763 17.1799 C 178.239 17.4239 178.724 17.963 178.505 18.3416 C 178.357 18.598 176.416 19.2303 176.211 19.5853 C 176.047 19.8685 177.203 21.446 177.021 21.7616 C 176.853 22.052 174.913 22.1047 174.743 22.3994 C 174.552 22.7306 175.238 24.6786 175.06 24.9865 C 174.868 25.3182 173.084 24.8478 172.93 25.1154 C 172.597 25.6914 172.707 27.8864 172.707 27.8864"
           style="fill:#00ff00;fill-opacity:1;stroke:#17a500;stroke-width:0.868842;stroke-linejoin:round;stroke-miterlimit:4;stroke-opacity:1"
           id="path15" />
        <path
           d="M 137.544 28.0708 C 137.544 28.0708 135.382 26.3205 134.865 26.3205 C 134.612 26.3205 133.97 28.902 133.652 28.902 C 133.373 28.902 131.888 26.6753 131.588 26.6753 C 131.288 26.6753 129.858 29.0234 129.565 29.0234 C 129.268 29.0234 128.539 26.5383 128.277 26.5383 C 127.913 26.5383 125.806 28.4231 125.598 28.4231 C 125.301 28.4231 125.236 27.4932 125.321 26.7451 C 125.377 26.2567 125.371 25.7617 125.274 25.5932 C 125.167 25.4081 122.725 26.3856 122.55 26.083 C 122.415 25.8494 123.369 23.3204 123.214 23.0517 C 123.068 22.7991 120.355 23.0058 120.205 22.747 C 120.06 22.4956 121.667 20.4282 121.531 20.1934 C 121.36 19.8967 118.626 19.2855 118.51 19.0856 C 118.353 18.8135 120.472 17.3575 120.422 17.149 C 120.359 17.0189 120.027 16.7953 119.648 16.5982 C 118.967 16.2439 118.112 15.5806 118.287 15.2774 C 118.4 15.0829 121.021 14.4037 121.172 14.1432 C 121.3 13.9211 119.553 11.8844 119.695 11.6389 C 119.826 11.4118 122.46 11.5262 122.593 11.2968 C 122.733 11.0536 121.635 8.52179 121.765 8.29558 C 121.919 8.02897 124.333 8.88317 124.457 8.66874 C 124.717 8.21791 124.482 5.67936 124.431 5.38166 C 124.428 5.36082 124.429 5.34968 124.435 5.34968 C 124.489 5.34968 126.638 7.09997 127.114 7.09997 C 127.368 7.09997 128.009 4.51849 128.327 4.51849 C 128.606 4.51849 130.091 6.74521 130.391 6.74521 C 130.691 6.74521 132.121 4.3971 132.414 4.3971 C 132.711 4.3971 133.44 6.88226 133.702 6.88226 C 134.067 6.88226 136.174 4.99737 136.381 4.99737 C 136.672 4.99737 136.737 5.90121 136.652 6.64357 C 136.594 7.14587 136.6 7.66124 136.7 7.83492 C 136.808 8.02133 139.25 7.0437 139.424 7.34548 C 139.559 7.57941 138.606 10.1085 138.761 10.3772 C 138.894 10.6075 141.594 10.3783 141.732 10.6167 C 141.866 10.8486 140.249 12.8989 140.377 13.1211 C 140.535 13.395 143.267 14.0012 143.4 14.2314 C 143.583 14.5495 141.505 15.9958 141.591 16.1441 C 141.669 16.2797 142.063 16.5331 142.488 16.7511 C 143.161 17.0962 143.931 17.7128 143.757 18.0136 C 143.638 18.2197 141.005 18.918 140.842 19.2015 C 140.714 19.4223 142.461 21.4584 142.32 21.7039 C 142.189 21.9306 139.554 21.8162 139.422 22.0462 C 139.267 22.3131 140.352 24.869 140.209 25.1173 C 140.055 25.3833 137.641 24.5288 137.517 24.7433 C 137.252 25.2028 137.544 28.0708 137.544 28.0708"
           style="fill:#00ff00;fill-opacity:1;stroke:#17a500;stroke-width:0.868842;stroke-linejoin:round;stroke-miterlimit:4;stroke-opacity:1"
           id="path16" />
        <path
           d="M 110.562 28.2124 C 110.562 28.2124 108.058 26.0687 107.641 26.0687 C 107.436 26.0687 106.772 29.2303 106.516 29.2303 C 106.287 29.2303 104.589 26.5032 104.344 26.5032 C 104.099 26.5032 102.471 29.379 102.233 29.379 C 101.991 29.379 101.217 26.3353 101.005 26.3353 C 100.702 26.3353 98.2478 28.6438 98.0937 28.6438 C 97.8735 28.6438 97.8821 27.5049 97.9872 26.5887 C 98.0558 25.9905 98.0714 25.4248 97.9926 25.2883 C 97.9049 25.1363 94.9766 26.4418 94.8364 26.199 C 94.7259 26.0075 95.9543 23.0152 95.828 22.7964 C 95.7085 22.5895 92.4472 22.9495 92.3258 22.7392 C 92.2076 22.5344 94.2349 20.1052 94.1259 19.9164 C 93.982 19.667 90.6956 19.0269 90.61 18.8786 C 90.4934 18.6767 93.1521 17.0029 93.1315 16.8189 C 93.0881 16.7172 92.6996 16.4762 92.236 16.2348 C 91.4024 15.8009 90.3062 15.0728 90.4428 14.8362 C 90.5314 14.6827 93.6819 13.9556 93.799 13.7527 C 93.8997 13.5783 91.6993 11.1897 91.81 10.9978 C 91.913 10.8195 95.0805 11.0621 95.1843 10.8823 C 95.294 10.6923 93.8869 7.69778 93.9891 7.52082 C 94.1139 7.30474 97.0112 8.45378 97.1115 8.28005 C 97.3204 7.91824 96.9591 4.93554 96.897 4.57094 C 96.8927 4.54541 96.8927 4.53176 96.8973 4.53176 C 96.9375 4.53176 99.4324 6.67543 99.8191 6.67543 C 100.024 6.67543 100.687 3.51378 100.944 3.51378 C 101.172 3.51378 102.871 6.24093 103.116 6.24093 C 103.361 6.24093 104.989 3.36511 105.227 3.36511 C 105.468 3.36511 106.243 6.40879 106.454 6.40879 C 106.758 6.40879 109.212 4.10028 109.366 4.10028 C 109.582 4.10028 109.575 5.20725 109.47 6.11645 C 109.399 6.73164 109.382 7.32083 109.463 7.46149 C 109.552 7.61442 112.48 6.30883 112.62 6.551 C 112.73 6.74285 111.502 9.73509 111.628 9.95394 C 111.733 10.1345 114.979 9.74814 115.086 9.93459 C 115.191 10.1163 113.152 12.5251 113.252 12.6991 C 113.38 12.9206 116.663 13.5546 116.77 13.74 C 116.923 14.0053 114.318 15.6719 114.381 15.7819 C 114.439 15.8825 114.9 16.1551 115.42 16.4221 C 116.244 16.8447 117.233 17.5208 117.094 17.7619 C 116.997 17.9295 113.834 18.6783 113.702 18.907 C 113.603 19.0799 115.803 21.4679 115.693 21.6596 C 115.59 21.8374 112.423 21.5948 112.318 21.7752 C 112.193 21.9927 113.584 25.0152 113.467 25.2176 C 113.342 25.4332 110.445 24.284 110.345 24.4578 C 110.131 24.8279 110.562 28.2124 110.562 28.2124"
           style="fill:#00ff00;fill-opacity:1;stroke:#17a500;stroke-width:0.868842;stroke-linejoin:round;stroke-miterlimit:4;stroke-opacity:1"
           id="path17" />
        <path
           d="M 87.8158 28.3317 C 87.8158 28.3317 85.0224 25.8564 84.689 25.8564 C 84.5249 25.8564 83.8439 29.5071 83.6384 29.5071 C 83.4532 29.5071 81.5748 26.3581 81.3762 26.3581 C 81.1775 26.3581 79.383 29.6788 79.1904 29.6788 C 78.9959 29.6788 78.1832 26.1643 78.0146 26.1643 C 77.7615 26.1643 75.0155 28.8299 74.9067 28.8299 C 74.751 28.8299 74.8221 27.5148 74.9434 26.4568 C 75.0227 25.7661 75.0568 25.1409 74.9935 25.0312 C 74.9219 24.9072 71.5837 26.4892 71.4727 26.2968 C 71.3825 26.1407 72.8428 22.758 72.7407 22.5811 C 72.6435 22.4128 68.9201 22.902 68.8223 22.7326 C 68.7268 22.567 71.1087 19.8329 71.0221 19.6829 C 70.9011 19.4734 67.1494 18.8088 67.0889 18.704 C 67.0065 18.5613 70.12 16.7039 70.1247 16.5406 C 70.0974 16.4628 69.6619 16.2072 69.1265 15.9285 C 68.164 15.4275 66.8647 14.6448 66.969 14.4642 C 67.0376 14.3453 70.6338 13.5778 70.7228 13.4235 C 70.8003 13.2894 68.2175 10.6039 68.3021 10.4572 C 68.3813 10.3202 71.9981 10.6709 72.0777 10.5329 C 72.1615 10.3877 70.4946 7.00311 70.5728 6.86766 C 70.673 6.69419 73.9777 8.09178 74.0581 7.95237 C 74.2237 7.66561 73.7563 4.30847 73.6846 3.88746 C 73.6795 3.85799 73.6785 3.84223 73.6818 3.84223 C 73.7102 3.84223 76.497 6.31752 76.8086 6.31752 C 76.9728 6.31752 77.6539 2.66676 77.8591 2.66676 C 78.0444 2.66676 79.9228 5.81581 80.1215 5.81581 C 80.3202 5.81581 82.1147 2.49509 82.3073 2.49509 C 82.5018 2.49509 83.3144 6.00963 83.4828 6.00963 C 83.7362 6.00963 86.4822 3.344 86.5907 3.344 C 86.7436 3.344 86.6753 4.62221 86.5544 5.67207 C 86.4726 6.38243 86.4363 7.03386 86.5015 7.14667 C 86.5735 7.27139 89.9116 5.68931 90.0224 5.88122 C 90.1127 6.03761 88.6524 9.4203 88.7545 9.59714 C 88.8346 9.73583 92.5408 9.21691 92.6232 9.35956 C 92.7036 9.49889 90.3084 12.21 90.3853 12.3433 C 90.4877 12.5206 94.2353 13.1782 94.3205 13.3258 C 94.448 13.5465 91.3975 15.3989 91.4424 15.4766 C 91.4835 15.5477 92.0001 15.8364 92.6014 16.1447 C 93.5529 16.6328 94.7262 17.359 94.6161 17.5497 C 94.5381 17.6848 90.928 18.4763 90.8228 18.6587 C 90.7462 18.7913 93.3296 21.4759 93.245 21.6223 C 93.1662 21.7589 89.5494 21.4082 89.4694 21.5468 C 89.3679 21.7226 91.0168 25.1384 90.9222 25.3022 C 90.8222 25.4754 87.5176 24.0777 87.4371 24.2171 C 87.2669 24.5119 87.8158 28.3317 87.8158 28.3317"
           style="fill:#00ff00;fill-opacity:1;stroke:#17a500;stroke-width:0.868842;stroke-linejoin:round;stroke-miterlimit:4;stroke-opacity:1"
           id="path18" />
        <path
           d="M 67.7758 28.4368 C 67.7758 28.4368 64.7276 25.6693 64.4683 25.6693 C 64.3403 25.6693 63.6434 29.751 63.4832 29.751 C 63.3358 29.751 61.299 26.2302 61.1411 26.2302 C 60.9831 26.2302 59.0419 29.9429 58.8898 29.9429 C 58.7365 29.9429 57.8902 26.0135 57.7593 26.0135 C 57.5509 26.0135 54.5475 28.9938 54.4784 28.9938 C 54.3797 28.9938 54.5058 27.5235 54.6415 26.3407 C 54.7301 25.5683 54.7805 24.8906 54.7309 24.8047 C 54.6735 24.7053 50.9742 26.5309 50.8888 26.383 C 50.8166 26.2581 52.4812 22.5313 52.4005 22.3915 C 52.3229 22.2571 48.1924 22.8601 48.1154 22.7268 C 48.0398 22.5958 50.7341 19.5931 50.6672 19.4771 C 50.5665 19.3028 46.4049 18.6167 46.3665 18.5503 C 46.3142 18.4597 49.8283 16.4404 49.8552 16.2955 C 49.8422 16.2387 49.3652 15.9702 48.7667 15.6586 C 47.6905 15.0984 46.2123 14.2677 46.2881 14.1364 C 46.3391 14.0481 50.328 13.245 50.3923 13.1335 C 50.4493 13.0348 47.5296 10.0879 47.5913 9.98102 C 47.6494 9.88023 51.662 10.3262 51.7204 10.225 C 51.7815 10.1193 49.8855 6.39109 49.9426 6.29222 C 50.0211 6.15628 53.6847 7.77285 53.7477 7.66368 C 53.8751 7.44304 53.3142 3.75602 53.234 3.28531 C 53.2284 3.25236 53.2264 3.23474 53.2285 3.23474 C 53.2465 3.23474 56.2904 6.0022 56.536 6.0022 C 56.6641 6.0022 57.3609 1.92053 57.5211 1.92053 C 57.6685 1.92053 59.7053 5.44127 59.8632 5.44127 C 60.0212 5.44127 61.9624 1.72859 62.1145 1.72859 C 62.2678 1.72859 63.1141 5.65797 63.2448 5.65797 C 63.4534 5.65797 66.4568 2.6777 66.5257 2.6777 C 66.6227 2.6777 66.5006 4.10678 66.3655 5.28056 C 66.274 6.07476 66.2207 6.78103 66.2717 6.86932 C 66.3293 6.96916 70.0287 5.1435 70.1139 5.29114 C 70.1861 5.41627 68.5216 9.14297 68.6023 9.2828 C 68.6611 9.38457 72.7727 8.74889 72.8328 8.85296 C 72.8917 8.95495 70.1827 11.9323 70.239 12.0299 C 70.3189 12.1683 74.476 12.8465 74.542 12.9608 C 74.6468 13.1423 71.2045 15.1583 71.233 15.2077 C 71.259 15.2528 71.8252 15.5556 72.4974 15.9004 C 73.5613 16.446 74.897 17.2164 74.8125 17.3628 C 74.7511 17.4692 70.7472 18.2983 70.6654 18.4399 C 70.6094 18.537 73.5297 21.4829 73.4682 21.5894 C 73.4104 21.6897 69.3978 21.2437 69.339 21.3455 C 69.2587 21.4846 71.135 25.2469 71.06 25.3767 C 70.9816 25.5125 67.3181 23.8959 67.2551 24.005 C 67.1232 24.2335 67.7758 28.4368 67.7758 28.4368"
           style="fill:#00ff00;fill-opacity:1;stroke:#17a500;stroke-width:0.868842;stroke-linejoin:round;stroke-miterlimit:4;stroke-opacity:1"
           id="path19" />
        <path
           d="M 49.6582 28.5318 C 49.6582 28.5318 46.3798 25.5002 46.1874 25.5002 C 46.092 25.5002 45.3808 29.9714 45.2614 29.9714 C 45.1482 29.9714 42.9682 26.1147 42.8471 26.1147 C 42.726 26.1147 40.6521 30.1817 40.5367 30.1817 C 40.4206 30.1817 39.5439 25.8773 39.4472 25.8773 C 39.2792 25.8773 36.043 29.142 36.0099 29.142 C 35.9626 29.142 36.1384 27.5313 36.2871 26.2356 C 36.3841 25.3896 36.4494 24.6644 36.4121 24.6 C 36.3676 24.5228 32.3417 26.5687 32.2795 26.4609 C 32.2236 26.3642 34.0729 22.3264 34.0115 22.22 C 33.9516 22.1163 29.4531 22.8223 29.3949 22.7215 C 29.3374 22.6218 32.314 19.3762 32.2649 19.2911 C 32.1826 19.1486 27.6504 18.4431 27.632 18.4112 C 27.6069 18.3678 31.4832 16.2023 31.5302 16.0738 C 31.53 16.036 31.0157 15.7559 30.36 15.4146 C 29.1811 14.801 27.5411 13.9267 27.5911 13.8401 C 27.6262 13.7794 31.9701 12.9441 32.0122 12.8713 C 32.0506 12.8046 28.8263 9.62139 28.8672 9.55049 C 28.9064 9.48251 33.2769 10.0145 33.316 9.94671 C 33.3565 9.87668 31.2535 5.83779 31.2915 5.77198 C 31.3504 5.66998 35.3384 7.48452 35.3857 7.40268 C 35.4785 7.24183 34.8331 3.25656 34.7453 2.74092 C 34.7391 2.70482 34.7363 2.68553 34.7373 2.68553 C 34.7459 2.68553 38.0223 5.71712 38.2081 5.71712 C 38.3036 5.71712 39.0147 1.24588 39.134 1.24588 C 39.2473 1.24588 41.4273 5.10266 41.5484 5.10266 C 41.6695 5.10266 43.7434 1.03562 43.8588 1.03562 C 43.9749 1.03562 44.8516 5.34004 44.9483 5.34004 C 45.1164 5.34004 48.3525 2.07532 48.3855 2.07532 C 48.432 2.07532 48.2613 3.6408 48.1133 4.92661 C 48.0131 5.79662 47.9444 6.55245 47.9826 6.61856 C 48.0272 6.69593 52.0531 4.65005 52.1152 4.75766 C 52.1711 4.85454 50.3219 8.89224 50.3833 8.99861 C 50.4228 9.067 54.9009 8.32577 54.9409 8.39495 C 54.9803 8.46319 51.9877 11.6813 52.0254 11.7466 C 52.0849 11.8497 56.6122 12.5466 56.6609 12.6309 C 56.7451 12.7768 52.9487 14.9409 52.9623 14.9645 C 52.9748 14.9861 53.5857 15.3018 54.3221 15.6794 C 55.4875 16.2771 56.9701 17.0875 56.9087 17.1938 C 56.8623 17.2743 52.5023 18.1374 52.4418 18.2421 C 52.4043 18.3071 55.6293 21.4893 55.5887 21.5597 C 55.5497 21.6271 51.1793 21.0951 51.1398 21.1635 C 51.0786 21.2695 53.1604 25.345 53.1032 25.4441 C 53.0444 25.546 49.0563 23.7315 49.0091 23.8133 C 48.9118 23.9818 49.6582 28.5318 49.6582 28.5318"
           style="fill:#00ff00;fill-opacity:1;stroke:#17a500;stroke-width:0.868842;stroke-linejoin:round;stroke-miterlimit:4;stroke-opacity:1"
           id="path20" />
      </g>
    </g>
  </g>
</svg>
