<?xml version="1.0" encoding="UTF-8" standalone="no"?>
<svg
   xmlns:dc="http://purl.org/dc/elements/1.1/"
   xmlns:cc="http://creativecommons.org/ns#"
   xmlns:rdf="http://www.w3.org/1999/02/22-rdf-syntax-ns#"
   xmlns:svg="http://www.w3.org/2000/svg"
   xmlns="http://www.w3.org/2000/svg"
   xmlns:sodipodi="http://sodipodi.sourceforge.net/DTD/sodipodi-0.dtd"
   xmlns:inkscape="http://www.inkscape.org/namespaces/inkscape"
   version="1.1"
   width="300"
   height="36"
   viewBox="0 0 300 36"
   id="svg2928"
   sodipodi:version="0.32"
   inkscape:version="1.0beta1 (459877fba3, 2019-11-14)"
   sodipodi:docname="basic-f09.svg">
  <defs
     id="defs3" />
  <sodipodi:namedview
     inkscape:lockguides="true"
     id="base"
     pagecolor="#ffffff"
     bordercolor="#666666"
     borderopacity="1.0"
     inkscape:pageopacity="0.0"
     inkscape:pageshadow="2"
     inkscape:zoom="1.4"
     inkscape:cx="160"
     inkscape:cy="18"
     inkscape:document-units="px"
     inkscape:current-layer="layer1"
     inkscape:document-rotation="0"
     showgrid="false"
     units="px"
     showguides="true"
     inkscape:guide-bbox="true"
     inkscape:window-width="1866"
     inkscape:window-height="1053"
     inkscape:window-x="54"
     inkscape:window-y="27"
     inkscape:window-maximized="0" />
  <metadata
     id="metadata4">
    <rdf:RDF>
      <cc:Work
         rdf:about="">
        <dc:format>image/svg+xml</dc:format>
        <dc:type
           rdf:resource="http://purl.org/dc/dcmitype/StillImage" />
        <dc:title />
      </cc:Work>
    </rdf:RDF>
  </metadata>
  <g
     inkscape:label="Layer 1"
     inkscape:groupmode="layer"
     id="layer1">
    <path
       inkscape:connector-curvature="0"
       id="path1010"
       d="m 76.488216,17.706796 c 0,9.208626 -12.396596,16.67372 -27.688573,16.67372 -15.291977,0 -27.688574,-7.465094 -27.688574,-16.67372 0,-9.2086263 12.396597,-16.6737207 27.688574,-16.6737207 15.291977,0 27.688573,7.4650944 27.688573,16.6737207 z"
       style="font-size:12px;fill:#dbdbdb;fill-opacity:1;fill-rule:evenodd;stroke:none;stroke-width:0.966964" />
    <path
       inkscape:connector-curvature="0"
       id="path1011"
       d="m 103.03256,17.706796 c 0,9.208626 -12.396595,16.67372 -27.688572,16.67372 -15.291977,0 -27.688574,-7.465094 -27.688574,-16.67372 0,-9.2086263 12.396597,-16.6737207 27.688574,-16.6737207 15.291977,0 27.688572,7.4650944 27.688572,16.6737207 z"
       style="font-size:12px;fill:#dbdbdb;fill-opacity:1;fill-rule:evenodd;stroke:#000000;stroke-width:0.966964pt;stroke-opacity:1" />
    <path
       inkscape:connector-curvature="0"
       id="path1012"
       d="m 132.89508,17.706796 c 0,9.208626 -12.3966,16.67372 -27.68857,16.67372 -15.291978,0 -27.688575,-7.465094 -27.688575,-16.67372 0,-9.2086263 12.396597,-16.6737207 27.688575,-16.6737207 15.29197,0 27.68857,7.4650944 27.68857,16.6737207 z"
       style="font-size:12px;fill:#dbdbdb;fill-opacity:1;fill-rule:evenodd;stroke:#000000;stroke-width:0.966964pt;stroke-opacity:0.156923" />
    <path
       inkscape:connector-curvature="0"
       id="path1013"
       d="m 159.43959,17.706796 c 0,9.208626 -12.3966,16.67372 -27.68857,16.67372 -15.29198,0 -27.68858,-7.465094 -27.68858,-16.67372 0,-9.2086263 12.3966,-16.6737207 27.68858,-16.6737207 15.29197,0 27.68857,7.4650944 27.68857,16.6737207 z"
       style="font-size:12px;fill:#dbdbdb;fill-opacity:1;fill-rule:evenodd;stroke:#ff0000;stroke-width:0.966964pt;stroke-opacity:1" />
    <path
       inkscape:connector-curvature="0"
       id="path1014"
       d="m 189.30213,17.706796 c 0,9.208626 -12.3966,16.67372 -27.68857,16.67372 -15.29198,0 -27.68858,-7.465094 -27.68858,-16.67372 0,-9.2086263 12.3966,-16.6737207 27.68858,-16.6737207 15.29197,0 27.68857,7.4650944 27.68857,16.6737207 z"
       style="font-size:12px;fill:#dbdbdb;fill-opacity:1;fill-rule:evenodd;stroke:#00ff7c;stroke-width:0.966964pt;stroke-opacity:1" />
    <path
       inkscape:connector-curvature="0"
       id="path1015"
       d="m 222.48253,17.706796 c 0,9.208626 -12.3966,16.67372 -27.68857,16.67372 -15.29198,0 -27.68858,-7.465094 -27.68858,-16.67372 0,-9.2086263 12.3966,-16.6737207 27.68858,-16.6737207 15.29197,0 27.68857,7.4650944 27.68857,16.6737207 z"
       style="font-size:12px;fill:#dbdbdb;fill-opacity:1;fill-rule:evenodd;stroke:#16417c;stroke-width:0.966964pt;stroke-opacity:1" />
    <path
       inkscape:connector-curvature="0"
       id="path1016"
       d="m 252.34503,17.706796 c 0,9.208626 -12.3966,16.67372 -27.68857,16.67372 -15.29198,0 -27.68858,-7.465094 -27.68858,-16.67372 0,-9.2086263 12.3966,-16.6737207 27.68858,-16.6737207 15.29197,0 27.68857,7.4650944 27.68857,16.6737207 z"
       style="font-size:12px;fill:#dbdbdb;fill-opacity:1;fill-rule:evenodd;stroke:#7c7016;stroke-width:0.966964pt;stroke-opacity:1" />
    <path
       inkscape:connector-curvature="0"
       id="path1017"
       d="m 278.88893,17.706796 c 0,9.208626 -12.3966,16.67372 -27.68857,16.67372 -15.29198,0 -27.68858,-7.465094 -27.68858,-16.67372 0,-9.2086263 12.3966,-16.6737207 27.68858,-16.6737207 15.29197,0 27.68857,7.4650944 27.68857,16.6737207 z"
       style="font-size:12px;fill:#dbdbdb;fill-opacity:1;fill-rule:evenodd;stroke:none;stroke-width:0.966964" />
  </g>
</svg>
